{
    "title": "ConsultedStudents.All",
    "model": "Instructors/me/consultedStudents",
    "searchExpression": "indexof(student/studentIdentifier, '${text}') ge 0 or indexof(student/person/familyName, '${text}') ge 0 or indexof(student/person/givenName, '${text}') ge 0 or indexof(student/department/name, '${text}') ge 0 or indexof(student/studentStatus/name, '${text}') ge 0",
    "selectable": true,
    "multipleSelect": true,
    "columns": [
      {
        "name": "id",
        "property": "id",
        "hidden": true
      },
      {
        "name": "student/id",
        "property": "student",
        "hidden": true
      },
      {
        "name": "student/user",
        "property": "studentUser",
        "hidden": true
      },
      {
        "name": "student/studentIdentifier",
        "property": "studentIdentifier",
        "title": "ConsultedStudents.StudentIdentifier",
        "hidden": false
      },
      {
        "name": "student/person/familyName",
        "property": "familyName",
        "title": "ConsultedStudents.FullName",
        "formatter": "TemplateFormatter",
        "formatString": "${familyName} ${givenName}"
      },
      {
        "name": "student/person/givenName",
        "property": "givenName",
        "hidden": true
      },
      {
        "name": "student/studentStatus/alternateName",
        "property": "studentStatus",
        "title": "ConsultedStudents.Status",
        "formatter": "TranslationFormatter",
        "formatString": "StudentStatuses.${value}"
      },
      {
        "name":"student/semester",
        "property": "semester",
        "title":"ConsultedStudents.Semester"
      },
      {
        "name": "student/department/name",
        "property": "studentDepartment",
        "title":"ConsultedStudents.Department"
  
      },
      {
        "name":"fromYear/alternateName",
        "property": "fromYear",
        "title":"ConsultedStudents.FromYear"
      },
      {
        "name": "startDate",
        "property": "startDate",
        "title": "ConsultedStudents.StartDate",
        "formatter": "DateTimeFormatter",
        "formatString": "shortDate"
      },
      {
        "name":"toYear/alternateName",
        "property": "toYear",
        "title":"ConsultedStudents.ToYear"
      },
      {
        "name": "endDate",
        "property": "endDate",
        "title": "ConsultedStudents.EndDate",
        "formatter": "DateTimeFormatter",
        "formatString": "shortDate"
      },
      {
        "name":"active",
        "property": "active",
        "title":"ConsultedStudents.IsActive",
        "formatters": [
          {
            "formatter": "TrueFalseFormatter"
          },
          {
            "formatter": "NgClassFormatter",
            "formatOptions": {
              "ngClass": {
                "text-success": "${active}",
                "text-danger": "${!active}"
              }
            }
          }
        ]
      }
    ],
    "criteria": [
      {
        "name": "studyProgram",
        "filter": "(indexof(student/studyProgram/abbreviation, '${value}') ge 0 )",
        "type": "text"
      },
      {
        "name": "studentName",
        "filter": "(indexof(student/person/familyName, '${value}') ge 0 or indexof(student/person/givenName, '${value}') ge 0 or indexof(student/studentIdentifier, '${value}') ge 0)",
        "type": "text"
      },
      {
        "name": "studentStatus",
        "filter": "(student/studentStatus/alternateName eq '${value}')",
        "type": "text"
      },
      {
        "name": "fromYear",
        "filter": "(fromYear/id eq ${value})",
        "type": "text"
      },
      {
        "name": "toYear",
        "filter": "(toYear/id eq ${value})",
        "type": "text"
      },
      {
        "name": "fromPeriod",
        "filter": "(fromPeriod/alternateName eq '${value}')",
        "type": "text"
      },
      {
        "name": "active",
        "filter": "(active eq '${value}')",
        "type": "text"
      },
      {
        "name": "semester",
        "filter": "(student/semester eq ${value})",
        "type": "text"
      },
      {
        "name": "studentDepartment",
        "filter": "(student/department eq '${value}')",
        "type": "text"
      }
    ]
}